{
  "timestamp": "20250827_140928",
  "query": "cattle",
  "parameters_used": {
    "keywords": "cattle",
    "category": "beauty-fashion",
    "page": 2,
    "order": "bestmatch"
  },
  "results": {
    "success": true,
    "images": [
      {
        "art_id": 24803078,
        "title": "portrait a buffalo in psychedelic color",
        "description": "Graphic print of drawn buffalo. Psychedelic color. Engraving. Portrait of a buffalo",
        "license": "expanded",
        "artist": "Alyoha",
        "credits": 1,
        "free": false,
        "preview": {
          "small": {
            "width": 334,
            "height": 250,
            "url": "https://cdn.vectorstock.com/i/preview-1x/30/78/portrait-a-buffalo-in-psychedelic-color-vector-24803078.jpg"
          },
          "large": {
            "width": 667,
            "height": 500,
            "url": "https://cdn.vectorstock.com/i/preview-2x/30/78/portrait-a-buffalo-in-psychedelic-color-vector-24803078.jpg"
          }
        }
      },
      {
        "art_id": 24803085,
        "title": "stylized buffalo in sunset colors portrait",
        "description": "Graphic print of drawn buffalo. Sunset colors. Engraving. Portrait of a buffalo",
        "license": "expanded",
        "artist": "Alyoha",
        "credits": 1,
        "free": false,
        "preview": {
          "small": {
            "width": 334,
            "height": 250,
            "url": "https://cdn.vectorstock.com/i/preview-1x/30/85/stylized-buffalo-in-sunset-colors-portrait-vector-24803085.jpg"
          },
          "large": {
            "width": 667,
            "height": 500,
            "url": "https://cdn.vectorstock.com/i/preview-2x/30/85/stylized-buffalo-in-sunset-colors-portrait-vector-24803085.jpg"
          }
        }
      },
      {
        "art_id": 24802658,
        "title": "engraving stylized silver buffalo on black",
        "description": "Engraving of stylized silver buffalo on black background. Linear drawing. Portrait of a buffalo",
        "license": "expanded",
        "artist": "Alyoha",
        "credits": 1,
        "free": false,
        "preview": {
          "small": {
            "width": 334,
            "height": 250,
            "url": "https://cdn.vectorstock.com/i/preview-1x/26/58/engraving-stylized-silver-buffalo-on-black-vector-24802658.jpg"
          },
          "large": {
            "width": 667,
            "height": 500,
            "url": "https://cdn.vectorstock.com/i/preview-2x/26/58/engraving-stylized-silver-buffalo-on-black-vector-24802658.jpg"
          }
        }
      },
      {
        "art_id": 24802652,
        "title": "stylized buffalo in spectrum colors on black",
        "description": "Graphic print of stylized buffalo in spectrum colors on black background. Linear drawing. Portrait of a buffalo",
        "license": "expanded",
        "artist": "Alyoha",
        "credits": 1,
        "free": false,
        "preview": {
          "small": {
            "width": 334,
            "height": 250,
            "url": "https://cdn.vectorstock.com/i/preview-1x/26/52/stylized-buffalo-in-spectrum-colors-on-black-vector-24802652.jpg"
          },
          "large": {
            "width": 667,
            "height": 500,
            "url": "https://cdn.vectorstock.com/i/preview-2x/26/52/stylized-buffalo-in-spectrum-colors-on-black-vector-24802652.jpg"
          }
        }
      },
      {
        "art_id": 24802649,
        "title": "stylized red buffalo on black background portrait",
        "description": "Graphic print of stylized red buffalo on black background. Linear drawing. Portrait of a buffalo",
        "license": "expanded",
        "artist": "Alyoha",
        "credits": 1,
        "free": false,
        "preview": {
          "small": {
            "width": 334,
            "height": 250,
            "url": "https://cdn.vectorstock.com/i/preview-1x/26/49/stylized-red-buffalo-on-black-background-portrait-vector-24802649.jpg"
          },
          "large": {
            "width": 667,
            "height": 500,
            "url": "https://cdn.vectorstock.com/i/preview-2x/26/49/stylized-red-buffalo-on-black-background-portrait-vector-24802649.jpg"
          }
        }
      },
      {
        "art_id": 16459580,
        "title": "set of simple fauna icons",
        "description": "Elements Tarantula, Steed, Sparrow And Other Synonyms Sparrow, Hoof And Kine. Vector Illustration Set Of Simple Fauna Icons.",
        "license": "exclusive",
        "artist": "rashadashurov",
        "credits": 1,
        "free": false,
        "preview": {
          "small": {
            "width": 250,
            "height": 250,
            "url": "https://cdn.vectorstock.com/i/preview-1x/95/80/set-of-simple-fauna-icons-vector-16459580.jpg"
          },
          "large": {
            "width": 499,
            "height": 500,
            "url": "https://cdn.vectorstock.com/i/preview-2x/95/80/set-of-simple-fauna-icons-vector-16459580.jpg"
          }
        }
      },
      {
        "art_id": 8439482,
        "title": "beautiful card",
        "description": "Greeting Beautiful card with Cow. Frame of animal made in vector. Cards for any design, Happy Pongal .Seamless hand drawn map with cow. The cow in Hinduism and represents fertility, purity, holiness",
        "license": "expanded",
        "artist": "An_Vino",
        "credits": 1,
        "free": false,
        "preview": {
          "small": {
            "width": 183,
            "height": 250,
            "url": "https://cdn.vectorstock.com/i/preview-1x/94/82/beautiful-card-vector-8439482.jpg"
          },
          "large": {
            "width": 365,
            "height": 500,
            "url": "https://cdn.vectorstock.com/i/preview-2x/94/82/beautiful-card-vector-8439482.jpg"
          }
        }
      },
      {
        "art_id": 32429182,
        "title": "cute cartoon cow girl with beautiful eyes",
        "description": "Cute cartoon cow girl with beautiful eyes in a pink dress. Funny cow character, lady.",
        "license": "expanded",
        "artist": "Michiru13",
        "credits": 1,
        "free": false,
        "preview": {
          "small": {
            "width": 250,
            "height": 250,
            "url": "https://cdn.vectorstock.com/i/preview-1x/91/82/cute-cartoon-cow-girl-with-beautiful-eyes-vector-32429182.jpg"
          },
          "large": {
            "width": 499,
            "height": 500,
            "url": "https://cdn.vectorstock.com/i/preview-2x/91/82/cute-cartoon-cow-girl-with-beautiful-eyes-vector-32429182.jpg"
          }
        }
      },
      {
        "art_id": 28913311,
        "title": "concept cartoon businessman riding bison head",
        "description": "Concept cartoon illustration businessman riding bison head to the mountains",
        "license": "expanded",
        "artist": "Mr-Vector7",
        "credits": 1,
        "free": false,
        "preview": {
          "small": {
            "width": 264,
            "height": 250,
            "url": "https://cdn.vectorstock.com/i/preview-1x/33/11/concept-cartoon-businessman-riding-bison-head-vector-28913311.jpg"
          },
          "large": {
            "width": 527,
            "height": 500,
            "url": "https://cdn.vectorstock.com/i/preview-2x/33/11/concept-cartoon-businessman-riding-bison-head-vector-28913311.jpg"
          }
        }
      },
      {
        "art_id": 24803074,
        "title": "buffalo in moonlight portrait a",
        "description": "Graphic print of drawn buffalo. Engraving. Portrait of a buffalo",
        "license": "expanded",
        "artist": "Alyoha",
        "credits": 1,
        "free": false,
        "preview": {
          "small": {
            "width": 334,
            "height": 250,
            "url": "https://cdn.vectorstock.com/i/preview-1x/30/74/buffalo-in-moonlight-portrait-a-vector-24803074.jpg"
          },
          "large": {
            "width": 667,
            "height": 500,
            "url": "https://cdn.vectorstock.com/i/preview-2x/30/74/buffalo-in-moonlight-portrait-a-vector-24803074.jpg"
          }
        }
      },
      {
        "art_id": 32429181,
        "title": "lovely cow girl with beautiful eyes in a red",
        "description": "lovely cow girl with beautiful eyes in a red dress in black peas, like a ladybug. Funny cow character, lady",
        "license": "expanded",
        "artist": "Michiru13",
        "credits": 1,
        "free": false,
        "preview": {
          "small": {
            "width": 250,
            "height": 250,
            "url": "https://cdn.vectorstock.com/i/preview-1x/91/81/lovely-cow-girl-with-beautiful-eyes-in-a-red-vector-32429181.jpg"
          },
          "large": {
            "width": 499,
            "height": 500,
            "url": "https://cdn.vectorstock.com/i/preview-2x/91/81/lovely-cow-girl-with-beautiful-eyes-in-a-red-vector-32429181.jpg"
          }
        }
      },
      {
        "art_id": 32429178,
        "title": "lovely cow girl with beautiful eyes in a red",
        "description": "lovely cow girl with beautiful eyes in a red dress in black peas, like a ladybug. Funny cow character, lady",
        "license": "expanded",
        "artist": "Michiru13",
        "credits": 1,
        "free": false,
        "preview": {
          "small": {
            "width": 250,
            "height": 250,
            "url": "https://cdn.vectorstock.com/i/preview-1x/91/78/lovely-cow-girl-with-beautiful-eyes-in-a-red-vector-32429178.jpg"
          },
          "large": {
            "width": 499,
            "height": 500,
            "url": "https://cdn.vectorstock.com/i/preview-2x/91/78/lovely-cow-girl-with-beautiful-eyes-in-a-red-vector-32429178.jpg"
          }
        }
      },
      {
        "art_id": 40849630,
        "title": "modern face cow black logo design graphic symbol",
        "description": "modern face cow black logo design vector graphic symbol icon sign illustration creative idea",
        "license": "exclusive",
        "artist": "devastudios7",
        "credits": 1,
        "free": false,
        "preview": {
          "small": {
            "width": 250,
            "height": 250,
            "url": "https://cdn.vectorstock.com/i/preview-1x/96/30/modern-face-cow-black-logo-design-graphic-symbol-vector-40849630.jpg"
          },
          "large": {
            "width": 499,
            "height": 500,
            "url": "https://cdn.vectorstock.com/i/preview-2x/96/30/modern-face-cow-black-logo-design-graphic-symbol-vector-40849630.jpg"
          }
        }
      },
      {
        "art_id": 40589023,
        "title": "cool head cow with sunglasses logo symbol icon",
        "description": "cool head cow with sunglasses logo symbol icon vector graphic design illustration idea creative",
        "license": "exclusive",
        "artist": "devastudios7",
        "credits": 1,
        "free": false,
        "preview": {
          "small": {
            "width": 250,
            "height": 250,
            "url": "https://cdn.vectorstock.com/i/preview-1x/90/23/cool-head-cow-with-sunglasses-logo-symbol-icon-vector-40589023.jpg"
          },
          "large": {
            "width": 499,
            "height": 500,
            "url": "https://cdn.vectorstock.com/i/preview-2x/90/23/cool-head-cow-with-sunglasses-logo-symbol-icon-vector-40589023.jpg"
          }
        }
      },
      {
        "art_id": 30112306,
        "title": "cartoon cow stands dressed in fashionable clothes",
        "description": "Cute cartoon cow stands dressed in fashionable clothes. Greeting card. Graphic element for kids, greeting card, cover, poster and t-shirt. Vector illustration.",
        "license": "expanded",
        "artist": "Andmedia",
        "credits": 1,
        "free": false,
        "preview": {
          "small": {
            "width": 250,
            "height": 250,
            "url": "https://cdn.vectorstock.com/i/preview-1x/23/06/cartoon-cow-stands-dressed-in-fashionable-clothes-vector-30112306.jpg"
          },
          "large": {
            "width": 499,
            "height": 500,
            "url": "https://cdn.vectorstock.com/i/preview-2x/23/06/cartoon-cow-stands-dressed-in-fashionable-clothes-vector-30112306.jpg"
          }
        }
      },
      {
        "art_id": 23783111,
        "title": "fell seamless pattern animal hair ornament fur",
        "description": "fell seamless pattern. Animal hair ornament. fur texture",
        "license": "expanded",
        "artist": "LumaKirau",
        "credits": 1,
        "free": false,
        "preview": {
          "small": {
            "width": 250,
            "height": 250,
            "url": "https://cdn.vectorstock.com/i/preview-1x/31/11/fell-seamless-pattern-animal-hair-ornament-fur-vector-23783111.jpg"
          },
          "large": {
            "width": 499,
            "height": 500,
            "url": "https://cdn.vectorstock.com/i/preview-2x/31/11/fell-seamless-pattern-animal-hair-ornament-fur-vector-23783111.jpg"
          }
        }
      },
      {
        "art_id": 33401974,
        "title": "coloring book with cow for adults and children",
        "description": "Coloring book with cow for adults and children. Vector illustration of coloring book.",
        "license": "expanded",
        "artist": "Alexander86",
        "credits": 1,
        "free": false,
        "preview": {
          "small": {
            "width": 306,
            "height": 250,
            "url": "https://cdn.vectorstock.com/i/preview-1x/19/74/coloring-book-with-cow-for-adults-and-children-vector-33401974.jpg"
          },
          "large": {
            "width": 611,
            "height": 500,
            "url": "https://cdn.vectorstock.com/i/preview-2x/19/74/coloring-book-with-cow-for-adults-and-children-vector-33401974.jpg"
          }
        }
      },
      {
        "art_id": 33254981,
        "title": "funny and spotted cow symbol",
        "description": "Funny and funny spotted cow. Vector illustration of the symbol of the year of the bull.",
        "license": "expanded",
        "artist": "Alexander86",
        "credits": 1,
        "free": false,
        "preview": {
          "small": {
            "width": 306,
            "height": 250,
            "url": "https://cdn.vectorstock.com/i/preview-1x/49/81/funny-and-spotted-cow-symbol-vector-33254981.jpg"
          },
          "large": {
            "width": 611,
            "height": 500,
            "url": "https://cdn.vectorstock.com/i/preview-2x/49/81/funny-and-spotted-cow-symbol-vector-33254981.jpg"
          }
        }
      },
      {
        "art_id": 33254980,
        "title": "funny cow in square style on a white background",
        "description": "Funny vector cow in square style. Illustration on a white background.",
        "license": "expanded",
        "artist": "Alexander86",
        "credits": 1,
        "free": false,
        "preview": {
          "small": {
            "width": 281,
            "height": 250,
            "url": "https://cdn.vectorstock.com/i/preview-1x/49/80/funny-cow-in-square-style-on-a-white-background-vector-33254980.jpg"
          },
          "large": {
            "width": 561,
            "height": 500,
            "url": "https://cdn.vectorstock.com/i/preview-2x/49/80/funny-cow-in-square-style-on-a-white-background-vector-33254980.jpg"
          }
        }
      },
      {
        "art_id": 32429188,
        "title": "cute cartoon cow girl with beautiful eyes",
        "description": "Cute cartoon cow girl with beautiful eyes in a pink dress and a hat. Funny cow character, lady.",
        "license": "expanded",
        "artist": "Michiru13",
        "credits": 1,
        "free": false,
        "preview": {
          "small": {
            "width": 250,
            "height": 250,
            "url": "https://cdn.vectorstock.com/i/preview-1x/91/88/cute-cartoon-cow-girl-with-beautiful-eyes-vector-32429188.jpg"
          },
          "large": {
            "width": 499,
            "height": 500,
            "url": "https://cdn.vectorstock.com/i/preview-2x/91/88/cute-cartoon-cow-girl-with-beautiful-eyes-vector-32429188.jpg"
          }
        }
      },
      {
        "art_id": 14751907,
        "title": "happy and cheerful farm animals",
        "description": "Very high quality original trendy vector illustration of happy and cheerful donkey, turkey, goose, horse, goat, duck, quail, sheep and rabbit",
        "license": "expanded",
        "artist": "StellaL",
        "credits": 1,
        "free": false,
        "preview": {
          "small": {
            "width": 250,
            "height": 250,
            "url": "https://cdn.vectorstock.com/i/preview-1x/19/07/happy-and-cheerful-farm-animals-vector-14751907.jpg"
          },
          "large": {
            "width": 499,
            "height": 500,
            "url": "https://cdn.vectorstock.com/i/preview-2x/19/07/happy-and-cheerful-farm-animals-vector-14751907.jpg"
          }
        }
      },
      {
        "art_id": 32064266,
        "title": "a charismatic rickettsia mascot design style",
        "description": "A charismatic rickettsia mascot design style smiling and waving hand. Vector illustration",
        "license": "exclusive",
        "artist": "kongvector",
        "credits": 1,
        "free": false,
        "preview": {
          "small": {
            "width": 282,
            "height": 250,
            "url": "https://cdn.vectorstock.com/i/preview-1x/42/66/a-charismatic-rickettsia-mascot-design-style-vector-32064266.jpg"
          },
          "large": {
            "width": 563,
            "height": 500,
            "url": "https://cdn.vectorstock.com/i/preview-2x/42/66/a-charismatic-rickettsia-mascot-design-style-vector-32064266.jpg"
          }
        }
      },
      {
        "art_id": 32064262,
        "title": "cool rickettsia cartoon character wearing",
        "description": "Cool rickettsia cartoon character wearing expensive black glasses. Vector illustration",
        "license": "exclusive",
        "artist": "kongvector",
        "credits": 1,
        "free": false,
        "preview": {
          "small": {
            "width": 198,
            "height": 250,
            "url": "https://cdn.vectorstock.com/i/preview-1x/42/62/cool-rickettsia-cartoon-character-wearing-vector-32064262.jpg"
          },
          "large": {
            "width": 395,
            "height": 500,
            "url": "https://cdn.vectorstock.com/i/preview-2x/42/62/cool-rickettsia-cartoon-character-wearing-vector-32064262.jpg"
          }
        }
      },
      {
        "art_id": 32063661,
        "title": "sporty rickettsia cartoon character design",
        "description": "Sporty rickettsia cartoon character design with barber. Vector illustration",
        "license": "exclusive",
        "artist": "kongvector",
        "credits": 1,
        "free": false,
        "preview": {
          "small": {
            "width": 269,
            "height": 250,
            "url": "https://cdn.vectorstock.com/i/preview-1x/36/61/sporty-rickettsia-cartoon-character-design-vector-32063661.jpg"
          },
          "large": {
            "width": 537,
            "height": 500,
            "url": "https://cdn.vectorstock.com/i/preview-2x/36/61/sporty-rickettsia-cartoon-character-design-vector-32063661.jpg"
          }
        }
      },
      {
        "art_id": 23783193,
        "title": "fell seamless pattern animal hair ornament fur",
        "description": "fell seamless pattern. Animal hair ornament. fur texture",
        "license": "expanded",
        "artist": "LumaKirau",
        "credits": 1,
        "free": false,
        "preview": {
          "small": {
            "width": 250,
            "height": 250,
            "url": "https://cdn.vectorstock.com/i/preview-1x/31/93/fell-seamless-pattern-animal-hair-ornament-fur-vector-23783193.jpg"
          },
          "large": {
            "width": 499,
            "height": 500,
            "url": "https://cdn.vectorstock.com/i/preview-2x/31/93/fell-seamless-pattern-animal-hair-ornament-fur-vector-23783193.jpg"
          }
        }
      },
      {
        "art_id": 20403862,
        "title": "set of 15 editable zoology icons line style",
        "description": "Set of 15 editable zoology icons line style. Includes symbols such as hog, puppy, bull and more. Can be used for web, mobile, UI and infographic design.",
        "license": "expanded",
        "artist": "bestvector",
        "credits": 1,
        "free": false,
        "preview": {
          "small": {
            "width": 358,
            "height": 250,
            "url": "https://cdn.vectorstock.com/i/preview-1x/38/62/set-of-15-editable-zoology-icons-line-style-vector-20403862.jpg"
          },
          "large": {
            "width": 715,
            "height": 500,
            "url": "https://cdn.vectorstock.com/i/preview-2x/38/62/set-of-15-editable-zoology-icons-line-style-vector-20403862.jpg"
          }
        }
      },
      {
        "art_id": 15921780,
        "title": "set of 6 editable animal outline icons includes",
        "description": "Set Of 6 Editable Animal Outline Icons. Includes Symbols Such As Butterfly, Elephant, Calf And More",
        "license": "expanded",
        "artist": "bestvector",
        "credits": 1,
        "free": false,
        "preview": {
          "small": {
            "width": 250,
            "height": 250,
            "url": "https://cdn.vectorstock.com/i/preview-1x/17/80/set-of-6-editable-animal-outline-icons-includes-vector-15921780.jpg"
          },
          "large": {
            "width": 499,
            "height": 500,
            "url": "https://cdn.vectorstock.com/i/preview-2x/17/80/set-of-6-editable-animal-outline-icons-includes-vector-15921780.jpg"
          }
        }
      }
    ],
    "total": 127,
    "page": 2,
    "pages": 2
  }
}